<svg width="88" height="28" viewBox="0 0 88 28" fill="none" xmlns="http://www.w3.org/2000/svg">
<path d="M4.85726 28V26.2065H6.08895C6.51125 26.2065 6.88662 26.1577 7.21508 26.0601C7.54353 25.9381 7.8016 25.7063 7.98928 25.3647C8.20043 25.023 8.306 24.4984 8.306 23.7908L8.30514 2.08628H5.27869C4.57486 2.08628 4.02353 2.20828 3.6247 2.45229C3.22587 2.6719 2.9326 2.98911 2.74492 3.40392C2.55723 3.81874 2.4282 4.29455 2.35781 4.83137L2.14667 6.84445H0L0.175956 0H21.2907L21.4667 6.84445H19.32L19.0737 4.83137C19.0267 4.29455 18.8977 3.81874 18.6866 3.40392C18.4989 2.98911 18.2056 2.6719 17.8068 2.45229C17.4079 2.20828 16.8566 2.08628 16.1528 2.08628H13.1263L13.1272 23.7542C13.1272 24.4618 13.221 24.9986 13.4087 25.3647C13.5964 25.7063 13.8662 25.9381 14.2181 26.0601C14.57 26.1577 14.9454 26.2065 15.3443 26.2065H16.5759V28H4.85726Z" fill="white"/>
<path d="M26.0441 27.9999C25.0079 27.9999 24.0659 27.8009 23.2181 27.4028C22.3938 26.9813 21.7344 26.349 21.2398 25.506C20.7688 24.663 20.5333 23.5975 20.5333 22.3096C20.5333 20.4362 21.1927 19.0429 22.5115 18.1297C23.8304 17.2164 25.8204 16.7129 28.4815 16.6193L31.4135 16.5139V14.5117C31.4135 13.7156 31.3547 13.013 31.2369 12.4042C31.1192 11.7719 30.8719 11.2802 30.4951 10.9289C30.1418 10.5777 29.5766 10.4021 28.7995 10.4021C28.093 10.4021 27.5395 10.566 27.1392 10.8938C26.7388 11.2216 26.468 11.6783 26.3267 12.2637C26.1854 12.8257 26.1147 13.4697 26.1147 14.1956C24.7488 14.1956 23.7244 14.0317 23.0414 13.7038C22.3585 13.3526 22.017 12.7555 22.017 11.9124C22.017 11.0694 22.3231 10.3903 22.9355 9.87517C23.5713 9.36 24.4191 8.98533 25.4789 8.75116C26.5386 8.51699 27.6926 8.3999 28.9408 8.3999C31.2958 8.3999 33.0621 8.85653 34.2396 9.7698C35.4171 10.6596 36.0058 12.2052 36.0058 14.4064V23.4336C36.0058 24.0659 36.0647 24.5693 36.1825 24.944C36.3238 25.2952 36.5593 25.5528 36.889 25.7167C37.2187 25.8572 37.6426 25.9275 38.1607 25.9275H38.2667V27.9999H32.4026L31.6961 25.0142H31.4135C30.8954 25.6465 30.4009 26.1851 29.9299 26.63C29.4824 27.0749 28.9525 27.4145 28.3402 27.6486C27.7515 27.8828 26.9861 27.9999 26.0441 27.9999ZM27.5631 25.5762C28.3638 25.5762 29.0467 25.3889 29.6119 25.0142C30.1772 24.6396 30.6128 24.101 30.919 23.3985C31.2487 22.696 31.4135 21.8764 31.4135 20.9397V18.235L29.5766 18.3404C28.4698 18.3872 27.5984 18.5746 26.9625 18.9024C26.3502 19.2302 25.9028 19.6869 25.6202 20.2723C25.3611 20.8577 25.2316 21.5837 25.2316 22.4501C25.2316 23.1526 25.314 23.738 25.4789 24.2064C25.6437 24.6513 25.9028 24.9908 26.256 25.225C26.6093 25.4592 27.045 25.5762 27.5631 25.5762Z" fill="white"/>
<path d="M40.1333 28V26.1947H40.6091C41.0483 26.1947 41.4753 26.1456 41.8902 26.0474C42.305 25.9246 42.6466 25.6912 42.915 25.3474C43.2078 24.9789 43.3542 24.4386 43.3542 23.7263V4.12632C43.3542 3.4386 43.2078 2.93509 42.915 2.61579C42.6222 2.27193 42.2684 2.05088 41.8536 1.95263C41.4387 1.85439 41.0239 1.80526 40.6091 1.80526H40.1333V0H48.1124V23.7263C48.1124 24.4386 48.2466 24.9789 48.515 25.3474C48.8078 25.6912 49.1616 25.9246 49.5764 26.0474C50.0157 26.1456 50.4427 26.1947 50.8575 26.1947H51.3333V28H40.1333Z" fill="white"/>
<path d="M53.2 28V26.2089H53.6773C54.0935 26.2089 54.5097 26.1601 54.9259 26.0627C55.3665 25.9408 55.7215 25.7093 55.9908 25.3681C56.2845 25.027 56.4314 24.5152 56.4314 23.8329V12.5013C56.4314 11.819 56.2845 11.3194 55.9908 11.0026C55.697 10.6614 55.342 10.4421 54.9259 10.3446C54.5097 10.2472 54.0935 10.1984 53.6773 10.1984H53.2V8.40731H61.2052V23.7598C61.2052 24.4665 61.3398 25.0026 61.6091 25.3681C61.8784 25.7093 62.2334 25.9408 62.6741 26.0627C63.1147 26.1601 63.5431 26.2089 63.9593 26.2089H64.4V28H53.2ZM58.6347 4.97128C57.8758 4.97128 57.2271 4.77633 56.6885 4.38642C56.1744 3.99652 55.9173 3.36292 55.9173 2.48564C55.9173 1.58399 56.1744 0.950392 56.6885 0.584856C57.2271 0.194952 57.888 0 58.6714 0C59.4059 0 60.0424 0.194952 60.5809 0.584856C61.1195 0.950392 61.3888 1.58399 61.3888 2.48564C61.3888 3.36292 61.1195 3.99652 60.5809 4.38642C60.0424 4.77633 59.3936 4.97128 58.6347 4.97128Z" fill="white"/>
<path d="M68.1333 18.1999C68.1333 12.7875 72.5209 8.3999 77.9333 8.3999C83.3457 8.3999 87.7333 12.7875 87.7333 18.1999C87.7333 23.6123 83.3457 27.9999 77.9333 27.9999H68.1333V18.1999Z" fill="#FFB40D"/>
<path fill-rule="evenodd" clip-rule="evenodd" d="M79.3333 14H76.5333V16.8L73.7333 16.8V19.6H76.5333V22.4H79.3333V19.6H82.1333V16.8L79.3333 16.8V14Z" fill="#261935"/>
</svg>
